\BOOKMARK [1][-]{section.1}{Motivation for the Workshop}{}% 1
\BOOKMARK [2][-]{subsection.1.1}{Language and Events}{section.1}% 2
\BOOKMARK [2][-]{subsection.1.2}{The need for a workshop}{section.1}% 3
\BOOKMARK [2][-]{subsection.1.3}{Timeliness}{section.1}% 4
\BOOKMARK [2][-]{subsection.1.4}{Goals}{section.1}% 5
\BOOKMARK [2][-]{subsection.1.5}{Previous conferences and workshops}{section.1}% 6
\BOOKMARK [1][-]{section.2}{Invited Speakers}{}% 7
\BOOKMARK [1][-]{section.3}{Workshop Organization}{}% 8
\BOOKMARK [2][-]{subsection.3.1}{Location and Venue}{section.3}% 9
\BOOKMARK [1][-]{section.4}{Presenters and Participants}{}% 10
\BOOKMARK [2][-]{subsection.4.1}{Recruiting Participants and Presenters}{section.4}% 11
\BOOKMARK [2][-]{subsection.4.2}{Selection of Presentations}{section.4}% 12
\BOOKMARK [3][-]{subsubsection.4.2.1}{Student Participation}{subsection.4.2}% 13
\BOOKMARK [2][-]{subsection.4.3}{Promotion of diversity}{section.4}% 14
\BOOKMARK [2][-]{subsection.4.4}{Childcare}{section.4}% 15
\BOOKMARK [1][-]{section.5}{Dissemination of results}{}% 16
