\relax 
\providecommand{\transparent@use}[1]{}
\providecommand\hyper@newdestlabel[2]{}
\providecommand\HyperFirstAtBeginDocument{\AtBeginDocument}
\HyperFirstAtBeginDocument{\ifx\hyper@anchor\@undefined
\global\let\oldcontentsline\contentsline
\gdef\contentsline#1#2#3#4{\oldcontentsline{#1}{#2}{#3}}
\global\let\oldnewlabel\newlabel
\gdef\newlabel#1#2{\newlabelxx{#1}#2}
\gdef\newlabelxx#1#2#3#4#5#6{\oldnewlabel{#1}{{#2}{#3}}}
\AtEndDocument{\ifx\hyper@anchor\@undefined
\let\contentsline\oldcontentsline
\let\newlabel\oldnewlabel
\fi}
\fi}
\global\let\hyper@last\relax 
\gdef\HyperFirstAtBeginDocument#1{#1}
\providecommand\HyField@AuxAddToFields[1]{}
\providecommand\HyField@AuxAddToCoFields[2]{}
\citation{Brown:1983p3922,Wittenberg:2014aa,Fausey:2010aa}
\citation{Tellex:2014aa}
\citation{ambridge2013retreat,Pinker:1989wr,gleitman1990structural,pinker1984language,Goldberg:CaW2006}
\citation{gleitman1990structural}
\citation{Quine1960wao}
\citation{Medina2011,Fisher2010}
\citation{Jackendoff:1990vu,Goldberg2003,Dowty:1991p6873,FillmoreCaseForCase}
\citation{Kehler:2002p5022,Kaiser:2012aa}
\citation{Levin:2013aa}
\@writefile{toc}{\contentsline {section}{\numberline {1}Motivation for the Workshop}{1}{section.1}}
\newlabel{sec:Motivation}{{1}{1}{Motivation for the Workshop}{section.1}{}}
\@writefile{toc}{\contentsline {subsection}{\numberline {1.1}Language and Events}{1}{subsection.1.1}}
\@writefile{toc}{\contentsline {subsection}{\numberline {1.2}The need for a workshop}{1}{subsection.1.2}}
\citation{pinker.s:2007}
\citation{Hovav:2005p8491,Radvansky:2014aa,Papafragou2015events}
\citation{Garvey:1974p9012,Brown:1983p3922,Rudolph:1997p2753}
\citation{Hartshorne:hi}
\citation{Levin:1993uf}
\citation{Hartshorne:hi}
\citation{Papafragou2015events,hartshorne2015love,ambridge2013retreat}
\citation{Wittenberg:2014aa,Hovav:2005p8491,Croft:2012ti}
\citation{Arnold:2013aa,Kaiser:2012aa}
\citation{Ikuta:2014aa,Tellex:2014aa}
\citation{Spelke:2007ib,Wu:2015aa}
\citation{Luo:2009aa}
\citation{Radvansky:2014aa}
\citation{Bhattacharya:2014aa}
\@writefile{toc}{\contentsline {subsection}{\numberline {1.3}Timeliness}{2}{subsection.1.3}}
\newlabel{ssec:Timeliness}{{1.3}{2}{Timeliness}{subsection.1.3}{}}
\citation{Lakusta:2012wc}
\citation{Radvansky:2014aa}
\citation{gleitman1990structural,Gentner:2001p9645}
\citation{pinker.s:2007}
\@writefile{lof}{\contentsline {figure}{\numberline {1}{\ignorespaces An example of throwing, giving, receiving, and catching.\relax }}{3}{figure.caption.1}}
\providecommand*\caption@xref[2]{\@setref\relax\@undefined{#1}}
\newlabel{fig:Catch}{{1}{3}{An example of throwing, giving, receiving, and catching.\relax }{figure.caption.1}{}}
\@writefile{lof}{\contentsline {figure}{\numberline {2}{\ignorespaces An example of breaking, crushing, squeezing, and holding.\relax }}{3}{figure.caption.1}}
\newlabel{fig:Break}{{2}{3}{An example of breaking, crushing, squeezing, and holding.\relax }{figure.caption.1}{}}
\@writefile{lot}{\contentsline {table}{\numberline {1}{\ignorespaces Previous conferences on event structure and language\relax }}{4}{table.caption.2}}
\newlabel{t:prev}{{1}{4}{Previous conferences on event structure and language\relax }{table.caption.2}{}}
\@writefile{toc}{\contentsline {subsection}{\numberline {1.4}Goals}{4}{subsection.1.4}}
\newlabel{ssec:Goals}{{1.4}{4}{Goals}{subsection.1.4}{}}
\@writefile{toc}{\contentsline {subsection}{\numberline {1.5}Previous conferences and workshops}{4}{subsection.1.5}}
\newlabel{ssec:Previous}{{1.5}{4}{Previous conferences and workshops}{subsection.1.5}{}}
\@writefile{toc}{\contentsline {section}{\numberline {2}Invited Speakers}{4}{section.2}}
\newlabel{sec:InvitedSpeakers}{{2}{4}{Invited Speakers}{section.2}{}}
\@writefile{toc}{\contentsline {section}{\numberline {3}Workshop Organization}{6}{section.3}}
\newlabel{sec:Organization}{{3}{6}{Workshop Organization}{section.3}{}}
\@writefile{toc}{\contentsline {subsection}{\numberline {3.1}Location and Venue}{6}{subsection.3.1}}
\newlabel{ssec:Location}{{3.1}{6}{Location and Venue}{subsection.3.1}{}}
\@writefile{toc}{\contentsline {section}{\numberline {4}Presenters and Participants}{6}{section.4}}
\newlabel{sec:PresentersAndParticipants}{{4}{6}{Presenters and Participants}{section.4}{}}
\@writefile{toc}{\contentsline {subsection}{\numberline {4.1}Recruiting Participants and Presenters}{6}{subsection.4.1}}
\newlabel{ssec:Promotion}{{4.1}{6}{Recruiting Participants and Presenters}{subsection.4.1}{}}
\@writefile{toc}{\contentsline {subsection}{\numberline {4.2}Selection of Presentations}{7}{subsection.4.2}}
\@writefile{toc}{\contentsline {subsubsection}{\numberline {4.2.1}Student Participation}{7}{subsubsection.4.2.1}}
\newlabel{sssec:Students}{{4.2.1}{7}{Student Participation}{subsubsection.4.2.1}{}}
\@writefile{toc}{\contentsline {subsection}{\numberline {4.3}Promotion of diversity}{7}{subsection.4.3}}
\newlabel{ssec:Diversity}{{4.3}{7}{Promotion of diversity}{subsection.4.3}{}}
\@writefile{toc}{\contentsline {subsection}{\numberline {4.4}Childcare}{7}{subsection.4.4}}
\newlabel{ssec:Childcare}{{4.4}{7}{Childcare}{subsection.4.4}{}}
\@writefile{toc}{\contentsline {section}{\numberline {5}Dissemination of results}{8}{section.5}}
\bibdata{../l3-bcbib/LLLL.bib}
\bibcite{ambridge2013retreat}{{1}{2013}{{Ambridge et~al.}}{{}}}
\bibcite{Arnold:2013aa}{{2}{2013}{{Arnold et~al.}}{{}}}
\bibcite{Bhattacharya:2014aa}{{3}{2014}{{Bhattacharya et~al.}}{{}}}
\bibcite{Brown:1983p3922}{{4}{1983}{{Brown and Fish}}{{}}}
\bibcite{Croft:2012ti}{{5}{2012}{{Croft}}{{}}}
\bibcite{Dowty:1991p6873}{{6}{1991}{{Dowty}}{{}}}
\bibcite{Fausey:2010aa}{{7}{2010}{{Fausey and Boroditsky}}{{}}}
\bibcite{FillmoreCaseForCase}{{8}{1968}{{Fillmore}}{{}}}
\bibcite{Fisher2010}{{9}{2010}{{Fisher et~al.}}{{}}}
\bibcite{Garvey:1974p9012}{{10}{1974}{{Garvey and Caramazza}}{{}}}
\bibcite{Gentner:2001p9645}{{11}{2001}{{Gentner and Boroditsky}}{{}}}
\bibcite{gleitman1990structural}{{12}{1990}{{Gleitman}}{{}}}
\bibcite{Goldberg2003}{{13}{2003}{{Goldberg}}{{}}}
\bibcite{Goldberg:CaW2006}{{14}{2006}{{Goldberg}}{{}}}
\bibcite{hartshorne2015love}{{15}{2015}{{Hartshorne et~al.}}{{}}}
\bibcite{Hartshorne:hi}{{16}{2013}{{Hartshorne and Snedeker}}{{}}}
\bibcite{Ikuta:2014aa}{{17}{2014}{{Ikuta et~al.}}{{}}}
\bibcite{Jackendoff:1990vu}{{18}{1990}{{Jackendoff}}{{}}}
\bibcite{Kaiser:2012aa}{{19}{2012}{{Kaiser}}{{}}}
\bibcite{Kehler:2002p5022}{{20}{2002}{{Kehler}}{{}}}
\bibcite{Lakusta:2012wc}{{21}{2012}{{Lakusta and Landau}}{{}}}
\bibcite{Levin:1993uf}{{22}{1993}{{Levin}}{{}}}
\bibcite{Hovav:2005p8491}{{23}{2005}{{Levin and Rappaport~Hovav}}{{}}}
\bibcite{Levin:2013aa}{{24}{2013}{{Levin and Rappaport~Hovav}}{{}}}
\bibcite{Luo:2009aa}{{25}{2009}{{Luo et~al.}}{{}}}
\bibcite{Medina2011}{{26}{2011}{{Medina et~al.}}{{}}}
\bibcite{Papafragou2015events}{{27}{2015}{{Papafragou}}{{}}}
\bibcite{pinker1984language}{{28}{1984}{{Pinker}}{{}}}
\bibcite{Pinker:1989wr}{{29}{1989}{{Pinker}}{{}}}
\bibcite{pinker.s:2007}{{30}{2007}{{Pinker}}{{}}}
\bibcite{Quine1960wao}{{31}{1960}{{Quine}}{{}}}
\bibcite{Radvansky:2014aa}{{32}{2014}{{Radvansky and Zacks}}{{}}}
\bibcite{Rudolph:1997p2753}{{33}{1997}{{Rudolph and Forsterling}}{{}}}
\bibcite{Spelke:2007ib}{{34}{2007}{{Spelke and Kinzler}}{{}}}
\bibcite{Tellex:2014aa}{{35}{2014}{{Tellex et~al.}}{{}}}
\bibcite{Wittenberg:2014aa}{{36}{2014}{{Wittenberg and Snedeker}}{{}}}
\bibcite{Wu:2015aa}{{37}{2015}{{Wu et~al.}}{{}}}
\bibstyle{apalike}
